{
    "api": {
        "chatroom": {
            "service": "AppSync",
            "providerPlugin": "awscloudformation",
            "output": {
                "authConfig": {
                    "additionalAuthenticationProviders": [
                        {
                            "authenticationType": "AWS_IAM"
                        }
                    ],
                    "defaultAuthentication": {
                        "authenticationType": "AMAZON_COGNITO_USER_POOLS",
                        "userPoolConfig": {
                            "userPoolId": "authchatroom04db6897"
                        }
                    }
                }
            }
        }
    },
    "auth": {
        "chatroom04db6897": {
            "service": "Cognito",
            "providerPlugin": "awscloudformation",
            "dependsOn": [],
            "customAuth": false
        }
    }
}